%YAML 1.1
%TAG !u! tag:unity3d.com,2011:
--- !u!21 &2100000
Material:
  serializedVersion: 6
  m_ObjectHideFlags: 0
  m_CorrespondingSourceObject: {fileID: 0}
  m_PrefabInternal: {fileID: 0}
  m_Name: Cairo-Bold SDF 1
  m_Shader: {fileID: 4800000, guid: 68e6db2ebdc24f95958faec2be5558d6, type: 3}
  m_ShaderKeywords: BEVEL_ON UNDERLAY_ON
  m_LightmapFlags: 4
  m_EnableInstancingVariants: 0
  m_DoubleSidedGI: 0
  m_CustomRenderQueue: -1
  stringTagMap: {}
  disabledShaderPasses: []
  m_SavedProperties:
    serializedVersion: 3
    m_TexEnvs:
    - _BumpMap:
        m_Texture: {fileID: 0}
        m_Scale: {x: 1, y: 1}
        m_Offset: {x: 0, y: 0}
    - _Cube:
        m_Texture: {fileID: 0}
        m_Scale: {x: 1, y: 1}
        m_Offset: {x: 0, y: 0}
    - _FaceTex:
        m_Texture: {fileID: 2800000, guid: 329a9dc83c25ce44d95ff5b957085356, type: 3}
        m_Scale: {x: 1, y: 0.84}
        m_Offset: {x: 0, y: 0}
    - _MainTex:
        m_Texture: {fileID: 28681496407740968, guid: 8176d3ad56dfe3a4c8a906afc0f409cf,
          type: 2}
        m_Scale: {x: 1, y: 1}
        m_Offset: {x: 0, y: 0}
    - _OutlineTex:
        m_Texture: {fileID: 0}
        m_Scale: {x: 1, y: 1}
        m_Offset: {x: 0, y: 0}
    m_Floats:
    - _Ambient: 0.5
    - _Bevel: 0.453
    - _BevelClamp: 0
    - _BevelOffset: -0.139
    - _BevelRoundness: 0
    - _BevelWidth: 0
    - _BumpFace: 0
    - _BumpOutline: 0
    - _ColorMask: 15
    - _Diffuse: 0.12
    - _FaceDilate: 0.099
    - _FaceUVSpeedX: 0.96
    - _FaceUVSpeedY: 0
    - _GlowInner: 0.351
    - _GlowOffset: 0.043
    - _GlowOuter: 0.058
    - _GlowPower: 0.75
    - _GradientScale: 6
    - _LightAngle: 5
    - _MaskSoftnessX: 0
    - _MaskSoftnessY: 0
    - _OutlineSoftness: -0.09
    - _OutlineUVSpeedX: 0
    - _OutlineUVSpeedY: 0
    - _OutlineWidth: 0.167
    - _PerspectiveFilter: 0.875
    - _Reflectivity: 8.43
    - _ScaleRatioA: 0.8333333
    - _ScaleRatioB: 0.59458333
    - _ScaleRatioC: 0.59458333
    - _ScaleX: 1
    - _ScaleY: 1
    - _ShaderFlags: 0
    - _SpecularPower: 1.02
    - _Stencil: 0
    - _StencilComp: 8
    - _StencilOp: 0
    - _StencilReadMask: 255
    - _StencilWriteMask: 255
    - _TextureHeight: 1024
    - _TextureWidth: 1024
    - _UnderlayDilate: 0
    - _UnderlayOffsetX: 0.037
    - _UnderlayOffsetY: -1
    - _UnderlaySoftness: 0
    - _VertexOffsetX: 0
    - _VertexOffsetY: 0
    - _WeightBold: 0.75
    - _WeightNormal: 0
    m_Colors:
    - _ClipRect: {r: -32767, g: -32767, b: 32767, a: 32767}
    - _EnvMatrixRotation: {r: 0, g: 0, b: 0, a: 0}
    - _FaceColor: {r: 0.9191176, g: 0.72756803, b: 0.24329586, a: 1}
    - _GlowColor: {r: 0.6034483, g: 0, b: 0.7352941, a: 1}
    - _MaskCoord: {r: 0, g: 0, b: 32767, a: 32767}
    - _OutlineColor: {r: 0.7137255, g: 0.4431373, b: 0.63529414, a: 1}
    - _ReflectFaceColor: {r: 0, g: 0, b: 0, a: 1}
    - _ReflectOutlineColor: {r: 0, g: 0, b: 0, a: 1}
    - _SpecularColor: {r: 1, g: 1, b: 1, a: 1}
    - _UnderlayColor: {r: 0.7137255, g: 0.4431373, b: 0.63529414, a: 1}
