# Exported from 3D Builder
o Object.1
v -3.015598 -12.573756 0.000000
v -8.015599 -12.573756 0.000000
v -8.015599 -7.573756 0.000000
v -3.015598 -7.573756 0.000000
v -8.015599 -2.573756 0.000000
v -3.015598 -2.573756 0.000000
v -8.015599 -2.573756 5.000000
v -3.015598 -2.573756 5.000000
v -8.015599 -2.573756 10.000000
v -3.015598 -2.573756 10.000000
v -8.015599 -7.573756 5.000000
v -8.015599 -7.573756 10.000000
v -3.015598 -12.573756 5.000000
v -8.015599 -12.573756 5.000000
v -3.015598 -12.573756 10.000000
v -8.015599 -12.573756 10.000000
v -3.015598 -7.573756 10.000000
v -3.015598 2.426244 0.000000
v -8.015599 2.426244 0.000000
v -8.015599 7.426244 0.000000
v -3.015598 7.426244 0.000000
v -8.015599 12.426244 0.000000
v -3.015598 12.426244 0.000000
v -8.015599 12.426244 5.000000
v -3.015598 12.426244 5.000000
v -8.015599 12.426244 10.000000
v -3.015598 12.426244 10.000000
v -8.015599 2.426244 5.000000
v -8.015599 7.426244 5.000000
v -8.015599 2.426244 10.000000
v -8.015599 7.426244 10.000000
v -3.015598 2.426244 5.000000
v -3.015598 2.426244 10.000000
v -3.015598 7.426244 10.000000
v -8.015599 17.426243 0.000000
v -13.015599 12.426244 0.000000
v -13.015599 17.426243 0.000000
v -13.015599 7.426244 0.000000
v -8.015599 17.426243 5.000000
v -13.015599 17.426243 5.000000
v -8.015599 17.426243 10.000000
v -13.015599 17.426243 10.000000
v -13.015599 7.426244 5.000000
v -13.015599 7.426244 10.000000
v -13.015599 12.426244 10.000000
v -13.015599 -12.573756 0.000000
v -13.015599 -7.573756 0.000000
v -13.015599 -17.573757 0.000000
v -8.015599 -17.573757 0.000000
v -13.015599 -7.573756 5.000000
v -13.015599 -7.573756 10.000000
v -8.015599 -17.573757 5.000000
v -8.015599 -17.573757 10.000000
v -13.015599 -17.573757 5.000000
v -13.015599 -17.573757 10.000000
v -13.015599 -12.573756 10.000000
v -20.940598 -11.548757 0.000000
v -27.403099 -0.073756 0.000000
v -20.940598 -0.073756 0.000000
v -20.940598 11.401243 0.000000
v -28.015598 -12.573756 0.000000
v -33.015598 -12.573756 0.000000
v -33.015598 -7.573756 0.000000
v -33.015598 -2.573756 0.000000
v -23.015598 -22.573757 0.000000
v -28.015598 -17.573757 0.000000
v -28.015598 -22.573757 0.000000
v -18.015598 -17.573757 0.000000
v -33.015598 7.426244 0.000000
v -28.015598 12.426244 0.000000
v -33.015598 12.426244 0.000000
v -33.015598 2.426244 0.000000
v -23.015598 22.426243 0.000000
v -28.015598 17.426243 0.000000
v -28.015598 22.426243 0.000000
v -18.015598 -22.573757 0.000000
v -13.015599 2.426244 0.000000
v -13.015599 -2.573756 0.000000
v -18.015598 17.426243 0.000000
v -18.015598 22.426243 0.000000
v -13.015599 -2.573756 5.000000
v -13.015599 -2.573756 10.000000
v -13.015599 2.426244 5.000000
v -13.015599 2.426244 10.000000
v -18.015598 17.426243 5.000000
v -18.015598 17.426243 10.000000
v -18.015598 22.426243 5.000000
v -18.015598 22.426243 10.000000
v -28.015598 22.426243 5.000000
v -28.015598 22.426243 10.000000
v -23.015598 22.426243 10.000000
v -28.015598 12.426244 5.000000
v -28.015598 12.426244 10.000000
v -28.015598 17.426243 10.000000
v -33.015598 12.426244 5.000000
v -33.015598 12.426244 10.000000
v -33.015598 -12.573756 5.000000
v -33.015598 -7.573756 10.000000
v -33.015598 -12.573756 10.000000
v -33.015598 -2.573756 10.000000
v -33.015598 2.426244 10.000000
v -33.015598 7.426244 10.000000
v -28.015598 -12.573756 5.000000
v -28.015598 -12.573756 10.000000
v -28.015598 -22.573757 5.000000
v -28.015598 -22.573757 10.000000
v -28.015598 -17.573757 10.000000
v -18.015598 -22.573757 5.000000
v -18.015598 -22.573757 10.000000
v -23.015598 -22.573757 10.000000
v -18.015598 -17.573757 5.000000
v -18.015598 -17.573757 10.000000
v -20.940598 -11.548757 10.000000
v -20.940598 -0.073756 10.000000
v -27.403099 -0.073756 10.000000
v -20.940598 11.401243 10.000000
v 26.984402 -12.573756 0.000000
v 21.984402 -12.573756 0.000000
v 21.984402 -7.573756 0.000000
v 26.984402 -7.573756 0.000000
v 21.984402 -2.573756 0.000000
v 26.984402 -2.573756 0.000000
v 26.984402 -2.573756 5.000000
v 26.984402 -7.573756 5.000000
v 26.984402 -2.573756 10.000000
v 26.984402 -7.573756 10.000000
v 21.984402 -2.573756 5.000000
v 21.984402 -2.573756 10.000000
v 21.984402 -12.573756 5.000000
v 21.984402 -12.573756 10.000000
v 21.984402 -7.573756 10.000000
v 26.984402 -12.573756 5.000000
v 26.984402 -12.573756 10.000000
v 29.484402 2.426244 0.000000
v 29.484402 -2.573756 0.000000
v 26.984402 -0.073756 0.000000
v 26.984402 2.426244 0.000000
v 31.984402 -0.073756 0.000000
v 31.984402 2.426244 0.000000
v 31.984402 -2.573756 0.000000
v 26.984402 2.426244 5.000000
v 26.984402 -0.073756 10.000000
v 26.984402 2.426244 10.000000
v 31.984402 2.426244 5.000000
v 29.484402 2.426244 10.000000
v 31.984402 2.426244 10.000000
v 29.484402 -2.573756 10.000000
v 31.984402 -2.573756 5.000000
v 31.984402 -2.573756 10.000000
v 31.984402 -0.073756 10.000000
v 31.984402 -7.573756 0.000000
v 31.984402 -12.573756 0.000000
v 26.984402 -17.573757 0.000000
v 31.984402 -17.573757 0.000000
v 31.984402 -7.573756 5.000000
v 31.984402 -7.573756 10.000000
v 26.984402 -17.573757 5.000000
v 31.984402 -17.573757 5.000000
v 26.984402 -17.573757 10.000000
v 31.984402 -17.573757 10.000000
v 31.984402 -12.573756 10.000000
v 37.409401 -0.073756 0.000000
v 37.409401 -5.811256 0.000000
v 33.553150 -5.811256 0.000000
v 33.553150 -0.073756 0.000000
v 37.409401 -11.548757 0.000000
v 37.409401 11.401243 0.000000
v 37.409401 5.663743 0.000000
v 33.553150 5.663743 0.000000
v 33.553150 11.401243 0.000000
v 45.121902 -0.073756 0.000000
v 36.984402 -17.573757 0.000000
v 26.984402 7.426244 0.000000
v 21.984402 7.426244 0.000000
v 21.984402 2.426244 0.000000
v 26.984402 12.426244 0.000000
v 21.984402 12.426244 0.000000
v 31.984402 7.426244 0.000000
v 26.984402 17.426243 0.000000
v 31.984402 17.426243 0.000000
v 36.984402 17.426243 0.000000
v 41.984402 -22.573757 0.000000
v 36.984402 -22.573757 0.000000
v 46.984402 -12.573756 0.000000
v 46.984402 -17.573757 0.000000
v 46.984402 -22.573757 0.000000
v 51.984402 -5.073756 0.000000
v 51.984402 -12.573756 0.000000
v 51.984402 2.426244 0.000000
v 41.984402 22.426243 0.000000
v 46.984402 12.426244 0.000000
v 36.984402 22.426243 0.000000
v 46.984402 17.426243 0.000000
v 51.984402 7.426244 0.000000
v 51.984402 12.426244 0.000000
v 46.984402 22.426243 0.000000
v 46.984402 12.426244 5.000000
v 51.984402 12.426244 5.000000
v 46.984402 12.426244 10.000000
v 51.984402 12.426244 10.000000
v 46.984402 22.426243 5.000000
v 46.984402 22.426243 10.000000
v 46.984402 17.426243 10.000000
v 36.984402 22.426243 5.000000
v 36.984402 22.426243 10.000000
v 41.984402 22.426243 10.000000
v 36.984402 17.426243 5.000000
v 36.984402 17.426243 10.000000
v 26.984402 17.426243 5.000000
v 26.984402 17.426243 10.000000
v 31.984402 17.426243 10.000000
v 26.984402 12.426244 5.000000
v 26.984402 12.426244 10.000000
v 21.984402 12.426244 5.000000
v 21.984402 12.426244 10.000000
v 21.984402 2.426244 5.000000
v 21.984402 2.426244 10.000000
v 21.984402 7.426244 10.000000
v 26.984402 7.426244 5.000000
v 26.984402 7.426244 10.000000
v 31.984402 7.426244 5.000000
v 31.984402 7.426244 10.000000
v 36.984402 -17.573757 5.000000
v 36.984402 -17.573757 10.000000
v 36.984402 -22.573757 5.000000
v 36.984402 -22.573757 10.000000
v 46.984402 -22.573757 5.000000
v 46.984402 -22.573757 10.000000
v 41.984402 -22.573757 10.000000
v 46.984402 -12.573756 5.000000
v 46.984402 -12.573756 10.000000
v 46.984402 -17.573757 10.000000
v 51.984402 -12.573756 5.000000
v 51.984402 -12.573756 10.000000
v 51.984402 7.426244 10.000000
v 51.984402 2.426244 10.000000
v 51.984402 -5.073756 10.000000
v 37.409401 -0.073756 10.000000
v 33.553150 -0.073756 10.000000
v 33.553150 -5.811256 10.000000
v 37.409401 -5.811256 10.000000
v 37.409401 -11.548757 10.000000
v 37.409401 11.401243 10.000000
v 33.553150 11.401243 10.000000
v 33.553150 5.663743 10.000000
v 37.409401 5.663743 10.000000
v 45.121902 -0.073756 10.000000
v 4.894402 -4.663756 0.000000
v 4.894402 -6.193756 0.000000
v 3.364401 -6.193756 0.000000
v 3.364401 -4.663756 0.000000
v 4.894402 -3.133756 0.000000
v 3.364401 -3.133756 0.000000
v 4.894402 -1.603756 0.000000
v 3.364401 -1.603756 0.000000
v 4.894402 -0.073756 0.000000
v 3.364401 -0.073756 0.000000
v 4.894402 1.456244 0.000000
v 3.364401 1.456244 0.000000
v 4.894402 2.986244 0.000000
v 3.364401 2.986244 0.000000
v 4.894402 4.516243 0.000000
v 3.364401 4.516243 0.000000
v 4.894402 6.046244 0.000000
v 3.364401 6.046244 0.000000
v 6.424401 -4.663756 0.000000
v 6.424401 -6.193756 0.000000
v 6.424401 -3.133756 0.000000
v 6.424401 -2.368756 0.000000
v 6.424401 -1.603756 0.000000
v 6.424401 -0.073756 0.000000
v 6.424401 1.456244 0.000000
v 6.424401 2.221244 0.000000
v 6.424401 2.986244 0.000000
v 6.424401 4.516243 0.000000
v 6.424401 6.046244 0.000000
v 7.954401 -5.428756 0.000000
v 7.954401 -4.663756 0.000000
v 7.954401 -6.193756 0.000000
v 7.954401 -3.898756 0.000000
v 7.189402 -3.133756 0.000000
v 7.954401 -3.133756 0.000000
v 7.954401 -1.986256 0.000000
v 7.189402 -1.603756 0.000000
v 7.954401 -1.603756 0.000000
v 7.189402 -2.368756 0.000000
v 7.954401 -2.368756 0.000000
v 7.954401 -0.838756 0.000000
v 7.954401 -0.073756 0.000000
v 7.954401 0.691244 0.000000
v 7.189402 1.456244 0.000000
v 7.954401 1.456244 0.000000
v 7.954401 2.986244 0.000000
v 7.954401 2.221244 0.000000
v 7.189402 2.221244 0.000000
v 7.189402 2.986244 0.000000
v 7.954401 1.838744 0.000000
v 7.954401 3.751244 0.000000
v 7.954401 4.516243 0.000000
v 7.954401 5.281244 0.000000
v 7.954401 6.046244 0.000000
v 8.336902 -1.603756 0.000000
v 8.336902 -1.986256 0.000000
v 8.336902 -2.368756 0.000000
v 9.101901 -0.838756 0.000000
v 9.484402 -0.073756 0.000000
v 9.484402 -0.838756 0.000000
v 8.719401 -0.073756 0.000000
v 8.719401 -0.838756 0.000000
v 8.719401 -1.221256 0.000000
v 8.719401 -1.603756 0.000000
v 9.101901 -1.221256 0.000000
v 9.101901 1.073744 0.000000
v 9.101901 0.691244 0.000000
v 8.719401 0.691244 0.000000
v 8.719401 1.073744 0.000000
v 9.484402 1.073744 0.000000
v 9.484402 0.691244 0.000000
v 8.336902 1.456244 0.000000
v 8.719401 1.456244 0.000000
v 8.336902 1.838744 0.000000
v 11.014401 -6.193756 0.000000
v 11.014401 -6.958756 0.000000
v 10.249401 -6.958756 0.000000
v 10.249401 -6.193756 0.000000
v 9.866901 -6.193756 0.000000
v 9.484402 -6.958756 0.000000
v 9.484402 -6.193756 0.000000
v 10.249401 -5.811256 0.000000
v 11.014401 -1.603756 0.000000
v 11.014401 -1.986256 0.000000
v 10.631902 -1.986256 0.000000
v 10.631902 -1.603756 0.000000
v 11.014401 -2.368756 0.000000
v 11.014401 -0.073756 0.000000
v 11.014401 -0.838756 0.000000
v 10.249401 -0.838756 0.000000
v 10.249401 -0.073756 0.000000
v 9.866901 -0.838756 0.000000
v 10.249401 -1.221256 0.000000
v 9.866901 -1.221256 0.000000
v 10.249401 -1.603756 0.000000
v 10.631902 1.456244 0.000000
v 10.249401 1.073744 0.000000
v 10.249401 1.456244 0.000000
v 11.014401 0.691244 0.000000
v 10.249401 0.691244 0.000000
v 11.014401 1.456244 0.000000
v 9.866901 1.073744 0.000000
v 9.866901 0.691244 0.000000
v 10.631902 1.838744 0.000000
v 11.014401 2.221244 0.000000
v 11.014401 1.838744 0.000000
v 9.866901 6.046244 0.000000
v 10.249401 6.811244 0.000000
v 10.249401 6.046244 0.000000
v 9.484402 6.811244 0.000000
v 9.484402 6.046244 0.000000
v 11.014401 6.811244 0.000000
v 11.014401 6.046244 0.000000
v 11.779402 -4.663756 0.000000
v 11.014401 -5.428756 0.000000
v 11.014401 -4.663756 0.000000
v 12.544401 -6.193756 0.000000
v 12.544401 -4.663756 0.000000
v 12.544401 -3.133756 0.000000
v 12.544401 -3.898756 0.000000
v 11.779402 -3.898756 0.000000
v 11.779402 -3.133756 0.000000
v 11.014401 -3.516256 0.000000
v 11.014401 -3.898756 0.000000
v 11.014401 -3.133756 0.000000
v 12.544401 -1.603756 0.000000
v 12.544401 -2.368756 0.000000
v 11.779402 -2.368756 0.000000
v 11.779402 -1.603756 0.000000
v 12.544401 -0.073756 0.000000
v 11.779402 1.456244 0.000000
v 12.544401 1.456244 0.000000
v 12.544401 2.986244 0.000000
v 12.544401 2.221244 0.000000
v 11.779402 2.221244 0.000000
v 11.779402 2.986244 0.000000
v 11.014401 2.986244 0.000000
v 12.544401 4.516243 0.000000
v 12.544401 3.751244 0.000000
v 11.779402 3.751244 0.000000
v 11.779402 4.516243 0.000000
v 11.014401 3.751244 0.000000
v 11.014401 4.516243 0.000000
v 11.014401 3.368744 0.000000
v 11.014401 5.281244 0.000000
v 12.544401 6.046244 0.000000
v 14.074402 -4.663756 0.000000
v 14.074402 -6.193756 0.000000
v 14.074402 -3.133756 0.000000
v 14.074402 -1.603756 0.000000
v 14.074402 -0.073756 0.000000
v 14.074402 1.456244 0.000000
v 14.074402 2.986244 0.000000
v 14.074402 4.516243 0.000000
v 14.074402 6.046244 0.000000
v 15.604402 -4.663756 0.000000
v 15.604402 -6.193756 0.000000
v 15.604402 -3.133756 0.000000
v 15.604402 -1.603756 0.000000
v 15.604402 -0.073756 0.000000
v 15.604402 1.456244 0.000000
v 15.604402 2.986244 0.000000
v 15.604402 4.516243 0.000000
v 15.604402 6.046244 0.000000
v 1.984401 -6.502328 0.000000
v 3.055830 -7.573756 0.000000
v 1.984401 -7.573756 0.000000
v 4.127259 -7.573756 0.000000
v 1.984401 -5.430899 0.000000
v 1.984401 -4.359470 0.000000
v 6.270116 -7.573756 0.000000
v 5.198687 -7.573756 0.000000
v 7.341544 -7.573756 0.000000
v 8.395719 -4.939934 0.000000
v 8.412973 -7.573756 0.000000
v 1.984401 -3.288042 0.000000
v 1.984401 -2.216614 0.000000
v 1.984401 -1.145185 0.000000
v 8.199862 -3.980584 0.000000
v 8.223605 -4.280570 0.000000
v 8.203509 -3.679682 0.000000
v 8.333825 -2.877796 0.000000
v 8.228224 -3.410347 0.000000
v 8.272032 -3.142299 0.000000
v 8.286836 -4.612746 0.000000
v 8.772345 -5.507859 0.000000
v 8.555730 -5.244263 0.000000
v 8.412496 -2.619093 0.000000
v 9.484402 -7.573756 0.000000
v 8.982199 -5.670355 0.000000
v 9.217447 -5.776389 0.000000
v 9.471375 -5.816096 0.000000
v 9.530105 -1.273277 0.000000
v 9.382276 -1.282928 0.000000
v 8.520551 -2.336198 0.000000
v 8.650146 -2.062500 0.000000
v 8.759771 -1.869962 0.000000
v 9.053466 -1.488256 0.000000
v 8.895740 -1.670298 0.000000
v 9.228366 -1.348587 0.000000
v 1.984401 0.997672 0.000000
v 1.984401 -0.073756 0.000000
v 1.984401 2.069101 0.000000
v 1.984401 3.140529 0.000000
v 1.984401 4.211958 0.000000
v 8.228226 3.410336 0.000000
v 8.199862 3.980576 0.000000
v 8.203510 3.679667 0.000000
v 8.412496 2.619095 0.000000
v 1.984401 5.283387 0.000000
v 4.127259 7.426244 0.000000
v 1.984401 6.354815 0.000000
v 3.055830 7.426244 0.000000
v 1.984401 7.426244 0.000000
v 5.198687 7.426244 0.000000
v 8.395719 4.939934 0.000000
v 6.270116 7.426244 0.000000
v 8.412973 7.426244 0.000000
v 7.341544 7.426244 0.000000
v 8.555730 5.244263 0.000000
v 8.223605 4.280569 0.000000
v 8.895738 1.670297 0.000000
v 8.759769 1.869963 0.000000
v 8.520550 2.336200 0.000000
v 8.650145 2.062503 0.000000
v 9.053465 1.488253 0.000000
v 8.333826 2.877794 0.000000
v 9.382276 1.282924 0.000000
v 9.228366 1.348583 0.000000
v 8.272033 3.142293 0.000000
v 8.286836 4.612746 0.000000
v 8.772345 5.507859 0.000000
v 8.982199 5.670355 0.000000
v 9.217447 5.776389 0.000000
v 9.471375 5.816097 0.000000
v 9.737269 5.779613 0.000000
v 9.484402 7.426244 0.000000
v 9.530106 1.273273 0.000000
v 9.737269 -5.779613 0.000000
v 9.877612 -5.727313 0.000000
v 10.006956 -5.656324 0.000000
v 10.232726 -5.468341 0.000000
v 10.553140 -4.978746 0.000000
v 10.414735 -5.235777 0.000000
v 10.664501 -4.667289 0.000000
v 10.733566 -4.341430 0.000000
v 10.555830 -7.573756 0.000000
v 10.193291 -1.849599 0.000000
v 10.022079 -1.609637 0.000000
v 9.673354 -1.314460 0.000000
v 9.813523 -1.401308 0.000000
v 10.590981 -2.736027 0.000000
v 10.467844 -2.390532 0.000000
v 10.315489 -2.062500 0.000000
v 10.683007 -3.091099 0.000000
v 10.742030 -3.447867 0.000000
v 12.698687 -7.573756 0.000000
v 11.627258 -7.573756 0.000000
v 13.770116 -7.573756 0.000000
v 15.912973 -7.573756 0.000000
v 14.841544 -7.573756 0.000000
v 16.984402 -6.502328 0.000000
v 16.984402 -7.573756 0.000000
v 16.984402 -5.430899 0.000000
v 10.764664 -4.009463 0.000000
v 10.762126 -3.679682 0.000000
v 16.984402 -4.359470 0.000000
v 16.984402 -3.288042 0.000000
v 16.984402 -2.216614 0.000000
v 16.984402 -1.145185 0.000000
v 9.673355 1.314456 0.000000
v 9.813524 1.401305 0.000000
v 10.022079 1.609634 0.000000
v 10.193291 1.849598 0.000000
v 10.315491 2.062503 0.000000
v 10.467845 2.390535 0.000000
v 10.590981 2.736028 0.000000
v 10.683007 3.091100 0.000000
v 10.742030 3.447868 0.000000
v 10.232726 5.468341 0.000000
v 10.006956 5.656324 0.000000
v 9.877612 5.727313 0.000000
v 10.555830 7.426244 0.000000
v 10.762125 3.679667 0.000000
v 10.553140 4.978746 0.000000
v 10.664502 4.667285 0.000000
v 10.414735 5.235777 0.000000
v 10.733567 4.341423 0.000000
v 10.764665 4.009452 0.000000
v 16.984402 0.997672 0.000000
v 16.984402 -0.073756 0.000000
v 16.984402 2.069101 0.000000
v 16.984402 3.140529 0.000000
v 16.984402 4.211958 0.000000
v 11.627258 7.426244 0.000000
v 12.698687 7.426244 0.000000
v 13.770116 7.426244 0.000000
v 16.984402 6.354815 0.000000
v 16.984402 5.283387 0.000000
v 14.841544 7.426244 0.000000
v 15.912973 7.426244 0.000000
v 16.984402 7.426244 0.000000
v 9.484402 -7.573756 5.000000
v 9.484402 -7.573756 2.500000
v 13.234402 -7.573756 2.500000
v 13.234402 -7.573756 5.000000
v 5.734402 -7.573756 5.000000
v 5.734402 -7.573756 2.500000
v 16.984402 -7.573756 10.000000
v 9.484402 -7.573756 10.000000
v 1.984401 -7.573756 10.000000
v 16.984402 -0.073756 5.000000
v 16.984402 -0.073756 2.500000
v 16.984402 3.676244 2.500000
v 16.984402 3.676244 5.000000
v 16.984402 -3.823756 5.000000
v 16.984402 -3.823756 2.500000
v 16.984402 7.426244 10.000000
v 16.984402 -0.073756 10.000000
v 9.484402 7.426244 5.000000
v 9.484402 7.426244 2.500000
v 5.734402 7.426244 2.500000
v 5.734402 7.426244 5.000000
v 13.234402 7.426244 5.000000
v 13.234402 7.426244 2.500000
v 1.984401 7.426244 10.000000
v 9.484402 7.426244 10.000000
v 1.984401 -0.073756 5.000000
v 1.984401 -0.073756 2.500000
v 1.984401 -3.823756 2.500000
v 1.984401 -3.823756 5.000000
v 1.984401 3.676244 5.000000
v 1.984401 3.676244 2.500000
v 1.984401 -0.073756 10.000000
v 9.973155 -5.412991 0.249512
v 9.973155 -5.628888 0.046206
v 9.854897 -5.658128 0.076627
v 9.854897 -5.441587 0.280540
v 9.737269 -5.678648 0.097975
v 9.737269 -5.461656 0.302314
v 8.579803 -4.792809 0.431436
v 8.783530 -4.898314 0.556893
v 8.783530 -5.338617 0.168817
v 9.015971 -4.975017 0.648102
v 9.015971 -5.419382 0.256447
v 9.262208 -5.019262 0.700715
v 9.262208 -5.465971 0.306996
v 9.506940 -5.031400 0.715148
v 9.506940 -5.478751 0.320862
v 9.737269 -5.015164 0.695842
v 9.973155 -4.968946 0.640884
v 10.086417 -5.376819 0.210266
v 10.196579 -4.892179 0.549598
v 10.196579 -5.332158 0.161808
v 10.396562 -4.785903 0.423225
v 8.295412 -4.080321 0.458807
v 8.414685 -4.215159 0.636956
v 8.414685 -4.664094 0.278380
v 8.579803 -4.335849 0.796414
v 8.783530 -4.434776 0.927118
v 9.015971 -4.506697 1.022141
v 9.262208 -4.548184 1.076955
v 9.506940 -4.559565 1.091991
v 9.737269 -4.544341 1.071877
v 9.973155 -4.501005 1.014621
v 10.196579 -4.429023 0.919517
v 10.396562 -4.329374 0.787859
v 10.560482 -4.206423 0.625415
v 10.560482 -4.654778 0.267302
v 10.679654 -4.066144 0.440076
v 10.679654 -4.505172 0.089403
v 8.295412 -3.624682 0.784053
v 8.223605 -3.937963 0.270720
v 8.223605 -3.493336 0.588095
v 8.414685 -3.749089 0.969657
v 8.579803 -3.860443 1.135787
v 8.783530 -3.951717 1.271960
v 9.015971 -4.018075 1.370960
v 9.262208 -4.056353 1.428067
v 9.506940 -4.066853 1.443733
v 9.737269 -4.052807 1.422778
v 9.973155 -4.012824 1.363125
v 10.196579 -3.946410 1.264042
v 10.396562 -3.854469 1.126874
v 10.560482 -3.741029 0.957632
v 10.679654 -3.611602 0.764537
v 10.748398 -3.474492 0.559982
v 10.748398 -3.917539 0.243736
v 10.767256 -3.338220 0.356676
v 10.767256 -3.769842 0.048597
v 8.198380 -3.798958 0.087065
v 8.198380 -3.365084 0.396755
v 8.295412 -3.153391 1.079009
v 8.223605 -3.034823 0.875066
v 8.414685 -3.265694 1.272177
v 8.579803 -3.366215 1.445077
v 8.783530 -3.448609 1.586799
v 9.015971 -3.508511 1.689833
v 9.262208 -3.543065 1.749268
v 9.506940 -3.552544 1.765571
v 9.737269 -3.539864 1.743762
v 9.973155 -3.503770 1.681679
v 10.196579 -3.443818 1.578558
v 10.396562 -3.360822 1.435800
v 10.560482 -3.258419 1.259662
v 10.679654 -3.141583 1.058698
v 10.748398 -3.017812 0.845807
v 10.767256 -2.894798 0.634217
v 10.742030 -2.779024 0.435079
v 10.742030 -3.209968 0.165336
v 8.198380 -2.919048 0.675929
v 8.217237 -3.228812 0.193449
v 8.217237 -2.796034 0.464338
v 8.295412 -2.642148 1.351542
v 8.223605 -2.539116 1.139350
v 8.414685 -2.739736 1.552523
v 8.579803 -2.827085 1.732417
v 8.783530 -2.898684 1.879872
v 9.015971 -2.950736 1.987073
v 9.262208 -2.980762 2.048912
v 9.506940 -2.988999 2.065875
v 9.737269 -2.977981 2.043184
v 9.973155 -2.946617 1.978589
v 10.196579 -2.894520 1.871297
v 10.396562 -2.822399 1.722765
v 10.560482 -2.733414 1.539502
v 10.679654 -2.631887 1.330410
v 10.748398 -2.524335 1.108908
v 10.767256 -2.417439 0.888759
v 10.742030 -2.316835 0.681566
v 10.670223 -2.213803 0.469375
v 10.670223 -2.660456 0.231137
v 10.550950 -2.116215 0.268393
v 10.550950 -2.548152 0.037969
v 8.405153 -2.122537 0.281414
v 8.285981 -2.224064 0.490506
v 8.285981 -2.672264 0.251447
v 8.217237 -2.331616 0.712009
v 8.198380 -2.438512 0.932158
v 8.295412 -2.153838 1.566422
v 8.223605 -2.067256 1.346996
v 8.414685 -2.235845 1.774255
v 8.579803 -2.309249 1.960282
v 8.783530 -2.369416 2.112764
v 9.015971 -2.413158 2.223620
v 9.262208 -2.438390 2.287567
v 9.506940 -2.445312 2.305109
v 9.737269 -2.436053 2.281644
v 9.973155 -2.409696 2.214847
v 10.196579 -2.365917 2.103897
v 10.396562 -2.305310 1.950302
v 10.560482 -2.230532 1.760791
v 10.679654 -2.145215 1.544570
v 10.748398 -2.054834 1.315516
v 10.767256 -1.965005 1.087862
v 10.742030 -1.880463 0.873605
v 10.670223 -1.793881 0.654179
v 10.550950 -1.711874 0.446346
v 10.385832 -1.638470 0.260319
v 10.385832 -2.028866 0.088499
v 8.405153 -1.717187 0.459811
v 8.569074 -2.033552 0.098151
v 8.569074 -1.642409 0.270300
v 8.285981 -1.802504 0.676032
v 8.217237 -1.892885 0.905086
v 8.198380 -1.982714 1.132740
v 8.295412 -1.631448 1.747516
v 8.223605 -1.564037 1.521456
v 8.414685 -1.695297 1.961633
v 8.579803 -1.752447 2.153284
v 8.783530 -1.799292 2.310376
v 9.015971 -1.833348 2.424584
v 9.262208 -1.852994 2.490464
v 9.506940 -1.858383 2.508536
v 9.737269 -1.851174 2.484362
v 9.973155 -1.830653 2.415545
v 10.196579 -1.796568 2.301241
v 10.396562 -1.749381 2.143002
v 10.560482 -1.691161 1.947761
v 10.679654 -1.624735 1.725003
v 10.748398 -1.554366 1.489024
v 10.767256 -1.484427 1.254487
v 10.742030 -1.418605 1.033753
v 10.670223 -1.351194 0.807693
v 10.550950 -1.287345 0.593576
v 10.385832 -1.230194 0.401925
v 10.182105 -1.183350 0.244833
v 10.182105 -1.578303 0.107838
v 8.569074 -1.233261 0.412208
v 8.769056 -1.581802 0.116704
v 8.769056 -1.186074 0.253968
v 8.405153 -1.291481 0.607448
v 8.285981 -1.357907 0.830206
v 8.217237 -1.428276 1.066185
v 8.198380 -1.498214 1.300722
v 8.295412 -1.094501 1.880949
v 8.223605 -1.048321 1.649655
v 8.414685 -1.138241 2.100023
v 8.579803 -1.177392 2.296112
v 8.783530 -1.209483 2.456841
v 9.015971 -1.232814 2.573693
v 9.262208 -1.246272 2.641099
v 9.506940 -1.249964 2.659590
v 9.737269 -1.245025 2.634856
v 9.973155 -1.230967 2.564446
v 10.196579 -1.207617 2.447495
v 10.396562 -1.175292 2.285591
v 10.560482 -1.135407 2.085830
v 10.679654 -1.089902 1.857915
v 10.748398 -1.041696 1.616472
v 10.767256 -0.993784 1.376504
v 10.742030 -0.948692 1.150659
v 10.670223 -0.902512 0.919365
v 10.550950 -0.858772 0.700291
v 10.385832 -0.819621 0.504202
v 10.182105 -0.787530 0.343473
v 9.949664 -0.764200 0.226621
v 9.949664 -1.149293 0.130626
v 9.703427 -0.750741 0.159215
v 9.703427 -1.129648 0.064745
v 9.458695 -0.747050 0.140725
v 9.458695 -1.124259 0.046673
v 9.228366 -0.751988 0.165459
v 9.228366 -1.131467 0.070847
v 8.992480 -0.766046 0.235868
v 8.992480 -1.151988 0.139664
v 8.769056 -0.789396 0.352819
v 8.569074 -0.821722 0.514723
v 8.405153 -0.861606 0.714484
v 8.285981 -0.907111 0.942399
v 8.217237 -0.955317 1.183842
v 8.198380 -1.003229 1.423810
v 8.295412 -0.550096 1.962477
v 8.223605 -0.526604 1.727801
v 8.414685 -0.572347 2.184755
v 8.579803 -0.592264 2.383712
v 8.783530 -0.608589 2.546792
v 9.015971 -0.620458 2.665353
v 9.262208 -0.627304 2.733745
v 9.506940 -0.629182 2.752505
v 9.737269 -0.626670 2.727410
v 9.973155 -0.619519 2.655970
v 10.196579 -0.607640 2.537309
v 10.396562 -0.591196 2.373038
v 10.560482 -0.570906 2.170355
v 10.679654 -0.547756 1.939106
v 10.748398 -0.523233 1.694132
v 10.767256 -0.498860 1.450655
v 10.742030 -0.475921 1.221507
v 10.670223 -0.452428 0.986830
v 10.550950 -0.430177 0.764552
v 10.385832 -0.410260 0.565596
v 10.182105 -0.393935 0.402516
v 9.949664 -0.382066 0.283955
v 9.703427 -0.375220 0.215563
v 9.458695 -0.373342 0.196802
v 9.228366 -0.375854 0.221898
v 8.992480 -0.383005 0.293337
v 8.769056 -0.394884 0.411999
v 8.569074 -0.411329 0.576270
v 8.405153 -0.431618 0.778953
v 8.285981 -0.454768 1.010202
v 8.217237 -0.479291 1.255175
v 8.198380 -0.503664 1.498653
v 8.295412 -0.000003 1.990338
v 8.223605 -0.000003 1.754452
v 8.414685 -0.000003 2.213762
v 8.579803 -0.000003 2.413744
v 8.783530 -0.000003 2.577664
v 9.015971 -0.000004 2.696836
v 9.262208 -0.000004 2.765580
v 9.506940 -0.000004 2.784438
v 9.737269 -0.000004 2.759213
v 9.973155 -0.000004 2.687405
v 10.196579 -0.000003 2.568132
v 10.396562 -0.000003 2.403014
v 10.560482 -0.000003 2.199287
v 10.679654 -0.000003 1.966846
v 10.748398 -0.000003 1.720610
v 10.767256 -0.000003 1.475878
v 10.742030 -0.000003 1.245548
v 10.670223 -0.000003 1.009662
v 10.550950 -0.000002 0.786238
v 10.385832 -0.000002 0.586256
v 10.182105 -0.000002 0.422336
v 9.949664 -0.000002 0.303164
v 9.703427 -0.000002 0.234420
v 9.458695 -0.000002 0.215562
v 9.228366 -0.000002 0.240787
v 8.992480 -0.000002 0.312595
v 8.769056 -0.000002 0.431868
v 8.569074 -0.000002 0.596986
v 8.405153 -0.000002 0.800713
v 8.285981 -0.000003 1.033154
v 8.217237 -0.000003 1.279390
v 8.198380 -0.000003 1.524122
v 8.295412 0.549993 1.962490
v 8.223605 0.526505 1.727813
v 8.414685 0.572240 2.184768
v 8.579803 0.592153 2.383725
v 8.783530 0.608475 2.546806
v 9.015971 0.620342 2.665367
v 9.262208 0.627187 2.733759
v 9.506940 0.629065 2.752520
v 9.737269 0.626553 2.727424
v 9.973155 0.619403 2.655984
v 10.196579 0.607526 2.537323
v 10.396562 0.591085 2.373051
v 10.560482 0.570799 2.170368
v 10.679654 0.547654 1.939119
v 10.748398 0.523135 1.694144
v 10.767256 0.498766 1.450666
v 10.742030 0.475831 1.221518
v 10.670223 0.452343 0.986841
v 10.550950 0.430096 0.764562
v 10.385832 0.410183 0.565605
v 10.182105 0.393861 0.402525
v 9.949664 0.381994 0.283964
v 9.703427 0.375149 0.215572
v 9.458695 0.373271 0.196811
v 9.228366 0.375783 0.221907
v 8.992480 0.382933 0.293346
v 8.769056 0.394810 0.412008
v 8.569074 0.411251 0.576280
v 8.405153 0.431537 0.778963
v 8.285981 0.454682 1.010212
v 8.217237 0.479201 1.255186
v 8.198380 0.503570 1.498664
v 8.295412 1.095333 1.880785
v 8.223605 1.049119 1.649498
v 8.414685 1.139105 2.099853
v 8.579803 1.178284 2.295936
v 8.783530 1.210399 2.456661
v 9.015971 1.233747 2.573509
v 9.262208 1.247215 2.640913
v 9.506940 1.250909 2.659403
v 9.737269 1.245967 2.634670
v 9.973155 1.231899 2.564262
v 10.196579 1.208532 2.447315
v 10.396562 1.176182 2.285416
v 10.560482 1.136269 2.085660
v 10.679654 1.090730 1.857751
v 10.748398 1.042488 1.616315
v 10.767256 0.994542 1.376355
v 10.742030 0.949416 1.150516
v 10.670223 0.903203 0.919229
v 10.550950 0.859430 0.700161
v 10.385832 0.820251 0.504078
v 10.182105 0.788136 0.343353
v 9.949664 0.764788 0.226504
v 9.703427 0.751320 0.159100
v 9.458695 0.747626 0.140611
v 9.228366 0.752568 0.165344
v 8.992480 0.766636 0.235751
v 8.769056 0.790003 0.352699
v 8.569074 0.822353 0.514598
v 8.405153 0.862266 0.714353
v 8.285981 0.907805 0.942262
v 8.217237 0.956047 1.183698
v 8.198380 1.003994 1.423659
v 8.295412 1.630180 1.747893
v 8.223605 1.562818 1.521819
v 8.414685 1.693984 1.962023
v 8.579803 1.751093 2.153687
v 8.783530 1.797904 2.310789
v 9.015971 1.831936 2.425004
v 9.262208 1.851567 2.490888
v 9.506940 1.856952 2.508961
v 9.737269 1.849749 2.484786
v 9.973155 1.829243 2.415965
v 10.196579 1.795182 2.301653
v 10.396562 1.748029 2.143404
v 10.560482 1.689850 1.948151
v 10.679654 1.623472 1.725379
v 10.748398 1.553154 1.489385
v 10.767256 1.483265 1.254833
v 10.742030 1.417490 1.034084
v 10.670223 1.350127 0.808010
v 10.550950 1.286324 0.593880
v 10.385832 1.229215 0.402217
v 10.182105 1.182404 0.245115
v 9.949664 1.148372 0.130900
v 9.703427 1.128740 0.065015
v 9.458695 1.123355 0.046942
v 9.228366 1.130559 0.071118
v 8.992480 1.151065 0.139938
v 8.769056 1.185126 0.254250
v 8.569074 1.232279 0.412500
v 8.405153 1.290457 0.607753
v 8.285981 1.356836 0.830525
v 8.217237 1.427154 1.066519
v 8.198380 1.497043 1.301071
v 8.295412 2.154593 1.566122
v 8.223605 2.067985 1.346706
v 8.414685 2.236626 1.773945
v 8.579803 2.310052 1.959963
v 8.783530 2.370237 2.112437
v 9.015971 2.413992 2.223288
v 9.262208 2.439233 2.287232
v 9.506940 2.446156 2.304773
v 9.737269 2.436895 2.281309
v 9.973155 2.410530 2.214515
v 10.196579 2.366737 2.103571
v 10.396562 2.306112 1.949983
v 10.560482 2.231311 1.760481
v 10.679654 2.145968 1.544270
v 10.748398 2.055559 1.315228
v 10.767256 1.965703 1.087584
v 10.742030 1.881135 0.873338
v 10.670223 1.794526 0.653923
v 10.550950 1.712494 0.446100
v 10.385832 1.639068 0.260082
v 10.182105 1.578882 0.107607
v 8.569074 1.643007 0.270062
v 8.769056 1.582382 0.116474
v 8.405153 1.717808 0.459564
v 8.285981 1.803151 0.675774
v 8.217237 1.893560 0.904817
v 8.198380 1.983417 1.132460
v 8.295412 2.660850 1.342433
v 8.223605 2.557219 1.130533
v 8.414685 2.759006 1.543138
v 8.579803 2.846863 1.722785
v 8.783530 2.918878 1.870036
v 9.015971 2.971234 1.977090
v 9.262208 3.001435 2.038844
v 9.506940 3.009719 2.055784
v 9.737269 2.998637 2.033124
v 9.973155 2.967090 1.968618
v 10.196579 2.914690 1.861474
v 10.396562 2.842150 1.713146
v 10.560482 2.752647 1.530135
v 10.679654 2.650529 1.321331
v 10.748398 2.542351 1.100133
v 10.767256 2.434834 0.880287
v 10.742030 2.333644 0.673379
v 10.670223 2.230013 0.461479
v 10.550950 2.131856 0.260774
v 10.385832 2.043999 0.081128
v 8.405153 2.138216 0.273777
v 8.569074 2.048713 0.090766
v 8.285981 2.240333 0.482582
v 8.217237 2.348511 0.703780
v 8.198380 2.456029 0.923626
v 8.295412 3.148643 1.081767
v 8.223605 3.030212 0.877746
v 8.414685 3.260818 1.275009
v 8.579803 3.361223 1.447977
v 8.783530 3.443523 1.589754
v 9.015971 3.503356 1.692827
v 9.262208 3.537870 1.752285
v 9.506940 3.547338 1.768595
v 9.737269 3.534673 1.746778
v 9.973155 3.498621 1.684670
v 10.196579 3.438737 1.581510
v 10.396562 3.355836 1.438697
v 10.560482 3.253551 1.262490
v 10.679654 3.136849 1.061449
v 10.748398 3.013221 0.848475
v 10.767256 2.890348 0.636803
v 10.742030 2.774706 0.437588
v 10.670223 2.656275 0.233567
v 10.550950 2.544100 0.040324
v 8.285981 2.668069 0.253885
v 8.217237 2.791697 0.466858
v 8.198380 2.914570 0.678531
v 8.295412 3.626333 0.782947
v 8.223605 3.494944 0.587018
v 8.414685 3.750780 0.968524
v 8.579803 3.862170 1.134630
v 8.783530 3.953473 1.270784
v 9.015971 4.019852 1.369769
v 9.262208 4.058143 1.426868
v 9.506940 4.068646 1.442531
v 9.737269 4.054596 1.421579
v 9.973155 4.014599 1.361935
v 10.196579 3.948164 1.262867
v 10.396562 3.856194 1.125718
v 10.560482 3.742718 0.956501
v 10.679654 3.613248 0.763434
v 10.748398 3.476094 0.558909
v 10.767256 3.339778 0.355632
v 10.742030 3.211485 0.164320
v 8.198380 3.366651 0.395705
v 8.217237 3.230335 0.192429
v 8.295412 4.080050 0.459012
v 8.223605 3.937698 0.270921
v 8.414685 4.214882 0.637166
v 8.579803 4.335567 0.796627
v 8.783530 4.434489 0.927334
v 9.015971 4.506407 1.022360
v 9.262208 4.547893 1.077175
v 9.506940 4.559273 1.092212
v 9.737269 4.544050 1.072098
v 9.973155 4.500716 1.014840
v 10.196579 4.428737 0.919734
v 10.396562 4.329092 0.788072
v 10.560482 4.206147 0.625624
v 10.679654 4.065874 0.440280
v 10.748398 3.917275 0.243936
v 10.767256 3.769585 0.048791
v 8.198380 3.798700 0.087261
v 8.414685 4.662621 0.279618
v 8.295412 4.518847 0.108597
v 8.579803 4.791311 0.432695
v 8.783530 4.896795 0.558169
v 9.015971 4.973483 0.649390
v 9.262208 5.017721 0.702011
v 9.506940 5.029856 0.716446
v 9.737269 5.013623 0.697137
v 9.973155 4.967414 0.642171
v 10.196579 4.890661 0.550873
v 10.396562 4.784407 0.424483
v 10.560482 4.653307 0.268538
v 10.679654 4.503730 0.090615
v 9.015971 5.420784 0.255154
v 8.783530 5.340007 0.167535
v 9.262208 5.467380 0.305697
v 9.506940 5.480161 0.319562
v 9.624563 5.474998 0.313961
v 9.737269 5.463063 0.301015
v 9.854897 5.442992 0.279244
v 9.973155 5.414391 0.248220
v 10.086417 5.378214 0.208979
v 10.196579 5.333546 0.160527
v 9.737269 5.679335 0.097316
v 9.624563 5.691537 0.110009
v 9.506940 5.696816 0.115501
v 9.973155 5.629570 0.045550
v 9.854897 5.658813 0.075969


f 1 2 3
f 4 3 5
f 3 4 1
f 5 6 4
f 6 5 7
f 8 7 9
f 7 8 6
f 9 10 8
f 5 3 11
f 7 11 12
f 11 7 5
f 12 9 7
f 2 1 13
f 14 13 15
f 13 14 2
f 15 16 14
f 8 4 6
f 8 10 17
f 13 4 8
f 8 17 13
f 13 17 15
f 1 4 13
f 15 12 16
f 17 9 12
f 12 15 17
f 9 17 10
f 18 19 20
f 21 20 22
f 20 21 18
f 22 23 21
f 23 22 24
f 25 24 26
f 24 25 23
f 26 27 25
f 20 19 28
f 29 28 30
f 28 29 20
f 30 31 29
f 19 18 32
f 28 32 33
f 32 28 19
f 33 30 28
f 25 21 23
f 25 27 34
f 32 21 25
f 25 34 32
f 32 34 33
f 18 21 32
f 33 31 30
f 34 26 31
f 31 33 34
f 26 34 27
f 35 36 37
f 20 38 36
f 36 22 20
f 35 22 36
f 37 39 35
f 40 41 39
f 39 37 40
f 41 40 42
f 39 24 22
f 41 26 24
f 22 35 39
f 24 39 41
f 20 43 38
f 29 44 43
f 43 20 29
f 44 29 31
f 41 42 45
f 31 45 44
f 45 31 26
f 41 45 26
f 3 46 47
f 2 48 46
f 46 3 2
f 48 2 49
f 50 11 3
f 51 12 11
f 3 47 50
f 11 50 51
f 2 52 49
f 14 53 52
f 52 2 14
f 53 14 16
f 49 54 48
f 52 55 54
f 54 49 52
f 55 52 53
f 12 51 56
f 16 56 55
f 56 16 12
f 55 53 16
f 57 58 59
f 58 60 59
f 61 62 63
f 64 58 63
f 57 65 66
f 67 66 65
f 61 63 58
f 66 61 57
f 57 68 65
f 57 61 58
f 58 69 70
f 69 71 70
f 58 72 69
f 73 60 74
f 74 60 70
f 74 75 73
f 58 70 60
f 58 64 72
f 46 68 57
f 48 68 46
f 57 59 47
f 76 65 68
f 46 57 47
f 77 78 59
f 59 78 47
f 5 78 19
f 36 60 79
f 77 59 38
f 79 73 80
f 38 59 60
f 60 73 79
f 79 37 36
f 60 36 38
f 19 78 77
f 81 5 7
f 82 7 9
f 5 81 78
f 7 82 81
f 7 19 28
f 9 28 30
f 19 7 5
f 28 9 7
f 19 77 83
f 28 83 84
f 83 28 19
f 84 30 28
f 77 38 43
f 83 43 44
f 43 83 77
f 44 84 83
f 37 79 85
f 40 85 86
f 85 40 37
f 86 42 40
f 79 80 87
f 85 87 88
f 87 85 79
f 88 86 85
f 89 73 75
f 89 90 91
f 91 73 89
f 73 91 87
f 87 91 88
f 80 73 87
f 92 74 70
f 92 93 94
f 94 74 92
f 74 94 89
f 89 94 90
f 75 74 89
f 70 71 95
f 92 95 96
f 95 92 70
f 96 93 92
f 97 63 62
f 97 64 63
f 98 97 99
f 97 98 100
f 95 97 100
f 72 64 97
f 95 69 72
f 95 71 69
f 95 101 102
f 102 96 95
f 101 95 100
f 72 97 95
f 62 61 103
f 97 103 104
f 103 97 62
f 104 99 97
f 105 66 67
f 105 106 107
f 107 66 105
f 66 107 103
f 103 107 104
f 61 66 103
f 108 65 76
f 108 109 110
f 110 65 108
f 65 110 105
f 105 110 106
f 67 65 105
f 76 68 111
f 108 111 112
f 111 108 76
f 112 109 108
f 68 48 54
f 111 54 55
f 54 111 68
f 55 112 111
f 47 78 81
f 50 81 82
f 81 50 47
f 82 51 50
f 113 114 115
f 115 114 116
f 104 98 99
f 100 98 115
f 113 107 110
f 106 110 107
f 104 115 98
f 107 113 104
f 113 110 112
f 113 115 104
f 115 93 102
f 102 93 96
f 115 102 101
f 91 94 116
f 94 93 116
f 94 91 90
f 115 116 93
f 115 101 100
f 56 113 112
f 55 56 112
f 113 51 114
f 109 112 110
f 56 51 113
f 84 114 82
f 114 51 82
f 9 30 82
f 45 86 116
f 84 44 114
f 86 88 91
f 44 116 114
f 116 86 91
f 86 45 42
f 116 44 45
f 30 84 82
f 117 118 119
f 120 119 121
f 119 120 117
f 121 122 120
f 120 122 123
f 124 123 125
f 123 124 120
f 125 126 124
f 122 121 127
f 123 127 128
f 127 123 122
f 128 125 123
f 129 119 118
f 129 130 131
f 127 119 129
f 129 131 127
f 127 131 128
f 121 119 127
f 118 117 132
f 129 132 133
f 132 129 118
f 133 130 129
f 133 131 130
f 126 128 131
f 131 133 126
f 128 126 125
f 134 135 136
f 136 135 122
f 134 136 137
f 138 134 139
f 138 140 135
f 134 138 135
f 141 137 136
f 141 142 143
f 123 141 136
f 141 123 142
f 123 125 142
f 122 123 136
f 144 139 134
f 144 145 146
f 141 144 134
f 144 141 145
f 141 143 145
f 137 141 134
f 123 122 135
f 123 147 125
f 148 123 135
f 123 148 147
f 148 149 147
f 140 148 135
f 145 142 147
f 142 125 147
f 145 143 142
f 150 146 145
f 150 147 149
f 145 147 150
f 151 117 120
f 152 153 117
f 117 151 152
f 153 152 154
f 120 155 151
f 124 156 155
f 155 120 124
f 156 124 126
f 154 157 153
f 158 159 157
f 157 154 158
f 159 158 160
f 157 132 117
f 159 133 132
f 117 153 157
f 132 157 159
f 156 126 133
f 161 133 159
f 133 161 156
f 159 160 161
f 162 163 164
f 162 164 165
f 166 164 163
f 167 168 169
f 167 169 170
f 168 162 165
f 168 165 169
f 171 163 162
f 163 171 166
f 167 171 168
f 168 171 162
f 166 152 164
f 151 164 152
f 165 164 140
f 151 140 164
f 139 165 138
f 140 138 165
f 169 165 139
f 172 154 152
f 173 137 174
f 175 174 137
f 176 173 177
f 174 177 173
f 178 173 176
f 170 169 178
f 179 180 176
f 180 170 176
f 181 170 180
f 178 176 170
f 178 169 139
f 172 182 183
f 172 166 182
f 184 166 171
f 184 182 166
f 182 185 186
f 187 188 184
f 171 187 184
f 182 184 185
f 189 187 171
f 190 191 167
f 191 171 167
f 192 190 181
f 167 181 190
f 190 193 191
f 167 170 181
f 194 191 195
f 190 196 193
f 194 171 191
f 171 194 189
f 166 172 152
f 195 191 197
f 198 197 199
f 197 198 195
f 199 200 198
f 201 193 196
f 201 202 203
f 203 193 201
f 193 203 197
f 197 203 199
f 191 193 197
f 204 190 192
f 204 205 206
f 206 190 204
f 190 206 201
f 201 206 202
f 196 190 201
f 192 181 207
f 204 207 208
f 207 204 192
f 208 205 204
f 209 180 179
f 209 210 211
f 211 180 209
f 180 211 207
f 207 211 208
f 181 180 207
f 179 176 212
f 209 212 213
f 212 209 179
f 213 210 209
f 176 177 214
f 212 214 215
f 214 212 176
f 215 213 212
f 216 174 175
f 216 217 218
f 218 174 216
f 174 218 214
f 214 218 215
f 177 174 214
f 216 137 141
f 217 141 143
f 137 216 175
f 141 217 216
f 137 173 219
f 141 219 220
f 219 141 137
f 220 143 141
f 173 178 221
f 219 221 222
f 221 219 173
f 222 220 219
f 221 139 144
f 222 144 146
f 139 221 178
f 144 222 221
f 140 151 155
f 148 155 156
f 155 148 140
f 156 149 148
f 154 172 223
f 158 223 224
f 223 158 154
f 224 160 158
f 172 183 225
f 223 225 226
f 225 223 172
f 226 224 223
f 227 182 186
f 227 228 229
f 229 182 227
f 182 229 225
f 225 229 226
f 183 182 225
f 230 185 184
f 230 231 232
f 232 185 230
f 185 232 227
f 227 232 228
f 186 185 227
f 184 188 233
f 230 233 234
f 233 230 184
f 234 231 230
f 198 194 195
f 198 189 194
f 200 235 198
f 198 235 236
f 233 189 198
f 233 188 187
f 198 236 233
f 233 236 237
f 233 237 234
f 187 189 233
f 238 239 240
f 238 240 241
f 242 241 240
f 243 244 245
f 243 245 246
f 246 245 239
f 246 239 238
f 247 238 241
f 241 242 247
f 243 246 247
f 246 238 247
f 242 240 161
f 156 161 240
f 239 149 240
f 156 240 149
f 146 150 239
f 149 239 150
f 245 146 239
f 224 161 160
f 220 218 143
f 217 143 218
f 213 215 220
f 218 220 215
f 222 213 220
f 244 222 245
f 210 213 211
f 211 213 244
f 208 211 244
f 222 244 213
f 222 146 245
f 224 226 229
f 224 229 242
f 231 247 242
f 231 242 229
f 229 228 232
f 237 231 234
f 247 231 237
f 229 232 231
f 236 247 237
f 206 243 199
f 199 243 247
f 205 208 206
f 243 206 208
f 206 199 203
f 243 208 244
f 235 200 199
f 206 203 202
f 235 199 247
f 247 236 235
f 242 161 224
f 248 249 250
f 248 250 251
f 252 248 251
f 252 251 253
f 254 252 253
f 254 253 255
f 256 254 255
f 256 255 257
f 258 256 257
f 258 257 259
f 260 258 259
f 260 259 261
f 262 260 261
f 262 261 263
f 264 262 263
f 264 263 265
f 266 267 249
f 266 249 248
f 268 266 248
f 268 248 252
f 269 254 270
f 252 269 268
f 254 269 252
f 271 270 254
f 271 254 256
f 272 271 256
f 272 256 258
f 273 260 274
f 258 273 272
f 260 273 258
f 275 274 260
f 275 260 262
f 276 275 262
f 276 262 264
f 277 266 278
f 267 277 279
f 266 277 267
f 280 281 282
f 281 266 268
f 266 280 278
f 280 266 281
f 283 284 285
f 286 283 287
f 284 283 286
f 284 286 269
f 284 269 270
f 286 281 268
f 286 268 269
f 287 282 281
f 287 281 286
f 284 288 285
f 288 271 289
f 271 284 270
f 284 271 288
f 290 291 292
f 291 271 272
f 271 290 289
f 290 271 291
f 293 294 295
f 293 295 296
f 296 295 273
f 296 273 274
f 295 291 272
f 295 272 273
f 297 295 294
f 291 297 292
f 295 297 291
f 296 298 293
f 298 275 299
f 275 296 274
f 296 275 298
f 300 276 301
f 275 300 299
f 276 300 275
f 302 303 283
f 302 283 285
f 303 304 287
f 303 287 283
f 305 306 307
f 308 305 309
f 306 305 308
f 308 309 288
f 308 288 289
f 302 310 311
f 310 288 309
f 288 302 285
f 302 288 310
f 305 312 310
f 305 310 309
f 313 314 315
f 313 315 316
f 317 318 314
f 317 314 313
f 316 319 320
f 319 290 292
f 290 316 315
f 316 290 319
f 315 308 289
f 315 289 290
f 314 308 315
f 306 314 318
f 308 314 306
f 294 321 297
f 321 319 292
f 321 292 297
f 321 320 319
f 322 323 324
f 322 324 325
f 326 327 328
f 324 326 325
f 327 326 324
f 326 329 325
f 330 331 332
f 330 332 333
f 334 332 331
f 335 336 337
f 335 337 338
f 339 338 337
f 306 339 307
f 338 339 306
f 337 340 341
f 337 341 339
f 340 333 342
f 333 336 330
f 336 340 337
f 340 336 333
f 343 344 345
f 344 346 347
f 346 343 348
f 343 346 344
f 349 350 318
f 349 318 317
f 344 347 350
f 344 350 349
f 350 306 318
f 338 350 347
f 306 350 338
f 346 335 338
f 346 338 347
f 351 352 353
f 345 351 343
f 353 348 343
f 353 343 351
f 354 355 356
f 357 354 358
f 355 354 357
f 359 360 356
f 359 356 355
f 361 362 363
f 362 364 322
f 364 361 365
f 361 364 362
f 366 367 368
f 366 368 369
f 370 368 371
f 369 370 372
f 368 370 369
f 368 361 363
f 368 363 371
f 367 365 361
f 367 361 368
f 373 374 375
f 373 375 376
f 331 375 334
f 376 331 330
f 375 331 376
f 375 369 372
f 375 372 334
f 374 366 369
f 374 369 375
f 336 376 330
f 376 377 373
f 377 336 335
f 336 377 376
f 378 346 348
f 346 377 335
f 377 378 379
f 378 377 346
f 380 381 382
f 380 382 383
f 383 382 352
f 383 352 384
f 353 378 348
f 382 353 352
f 378 353 382
f 381 379 378
f 381 378 382
f 385 386 387
f 385 387 388
f 388 387 389
f 388 389 390
f 391 383 384
f 387 391 389
f 383 391 387
f 386 380 383
f 386 383 387
f 392 388 390
f 388 393 385
f 393 392 360
f 392 393 388
f 394 395 364
f 394 364 365
f 367 394 365
f 396 367 366
f 394 367 396
f 374 396 366
f 397 374 373
f 396 374 397
f 398 397 373
f 398 373 377
f 399 398 377
f 399 377 379
f 381 399 379
f 400 381 380
f 399 381 400
f 386 400 380
f 401 386 385
f 400 386 401
f 402 401 385
f 402 385 393
f 403 404 395
f 403 395 394
f 405 403 394
f 405 394 396
f 406 405 396
f 406 396 397
f 407 406 397
f 407 397 398
f 408 407 398
f 408 398 399
f 409 408 399
f 409 399 400
f 410 409 400
f 410 400 401
f 411 410 401
f 411 401 402
f 412 413 414
f 250 415 413
f 250 412 416
f 416 251 250
f 250 413 412
f 417 251 416
f 249 415 250
f 267 418 419
f 267 420 418
f 419 249 267
f 277 278 421
f 279 420 267
f 279 422 420
f 415 249 419
f 253 417 423
f 253 251 417
f 255 424 425
f 424 255 253
f 253 423 424
f 425 257 255
f 426 427 280
f 278 280 427
f 428 426 280
f 282 287 429
f 282 430 428
f 428 280 282
f 430 282 431
f 432 278 427
f 433 279 277
f 421 434 277
f 278 432 421
f 434 433 277
f 287 304 435
f 429 287 435
f 327 422 279
f 279 328 327
f 324 436 327
f 279 437 328
f 433 437 279
f 328 438 439
f 438 328 437
f 307 440 441
f 436 422 327
f 442 304 303
f 435 304 442
f 443 442 303
f 444 302 311
f 445 311 310
f 303 302 444
f 444 443 303
f 310 312 445
f 445 446 311
f 441 312 305
f 312 441 447
f 447 445 312
f 307 441 305
f 444 311 446
f 282 429 431
f 448 257 449
f 257 425 449
f 259 257 448
f 450 451 261
f 450 261 259
f 452 261 451
f 259 448 450
f 293 298 453
f 298 454 455
f 455 453 298
f 454 298 299
f 456 294 293
f 452 263 261
f 457 263 452
f 457 265 263
f 458 264 265
f 459 265 457
f 460 459 461
f 265 459 460
f 460 458 265
f 458 462 264
f 299 300 463
f 464 276 462
f 465 301 466
f 276 464 466
f 276 466 301
f 467 300 301
f 264 462 276
f 454 299 468
f 469 320 470
f 470 320 321
f 471 294 456
f 321 472 470
f 472 321 471
f 473 316 320
f 293 474 456
f 313 316 473
f 475 317 313
f 473 320 469
f 313 476 475
f 476 313 473
f 477 293 453
f 474 293 477
f 478 299 463
f 467 463 300
f 301 479 467
f 468 299 478
f 301 357 480
f 357 481 480
f 301 465 357
f 481 357 358
f 482 358 483
f 484 357 465
f 355 357 484
f 358 482 481
f 480 479 301
f 317 475 485
f 321 294 471
f 486 328 439
f 329 326 487
f 326 486 487
f 488 489 329
f 329 487 488
f 328 486 326
f 329 489 362
f 322 325 329
f 490 362 491
f 490 492 363
f 363 492 493
f 323 494 324
f 489 491 362
f 324 494 436
f 342 495 496
f 333 495 342
f 340 496 341
f 341 497 440
f 497 341 498
f 496 498 341
f 307 339 341
f 340 342 496
f 499 500 334
f 334 500 332
f 332 501 495
f 332 495 333
f 499 372 502
f 332 500 501
f 503 502 372
f 364 504 505
f 364 506 504
f 322 329 362
f 364 323 322
f 364 505 323
f 362 490 363
f 364 395 506
f 494 323 505
f 404 507 508
f 509 510 507
f 404 508 395
f 404 511 509
f 404 509 507
f 506 395 508
f 404 403 511
f 512 371 493
f 371 363 493
f 513 371 512
f 503 372 370
f 371 513 370
f 372 499 334
f 370 513 503
f 514 403 405
f 511 403 514
f 515 514 405
f 516 405 406
f 406 517 516
f 516 515 405
f 406 407 517
f 317 518 349
f 519 345 349
f 485 518 317
f 349 518 519
f 520 521 345
f 345 519 520
f 521 522 351
f 349 345 344
f 351 522 523
f 524 525 384
f 352 523 524
f 526 391 525
f 345 521 351
f 356 527 528
f 354 528 529
f 358 354 483
f 354 529 483
f 359 355 530
f 354 356 528
f 484 530 355
f 360 527 356
f 526 531 391
f 532 392 533
f 532 534 392
f 392 534 527
f 390 535 533
f 352 351 523
f 384 525 391
f 536 389 531
f 389 391 531
f 536 390 389
f 533 392 390
f 352 524 384
f 408 537 407
f 538 407 537
f 539 537 408
f 540 539 409
f 408 409 539
f 409 541 540
f 541 409 410
f 359 393 360
f 392 527 360
f 530 542 359
f 542 393 359
f 543 393 542
f 543 544 393
f 544 402 393
f 545 546 411
f 410 411 546
f 546 541 410
f 547 411 402
f 548 411 547
f 548 549 545
f 548 545 411
f 544 547 402
f 535 390 536
f 407 538 517
f 341 440 307
f 550 551 552
f 550 552 553
f 554 555 551
f 554 551 550
f 552 507 510
f 552 508 507
f 552 504 506
f 552 505 504
f 552 506 508
f 556 553 510
f 552 510 553
f 553 556 557
f 551 436 494
f 422 436 551
f 505 552 551
f 551 494 505
f 551 555 420
f 555 418 420
f 555 415 419
f 555 413 415
f 555 419 418
f 554 550 557
f 553 557 550
f 558 414 554
f 555 554 414
f 557 558 554
f 414 413 555
f 420 422 551
f 559 560 561
f 559 561 562
f 563 564 560
f 563 560 559
f 561 545 549
f 561 546 545
f 561 540 541
f 561 539 540
f 561 541 546
f 565 562 549
f 561 549 562
f 562 565 566
f 560 538 537
f 517 538 560
f 539 561 560
f 560 537 539
f 560 564 516
f 564 515 516
f 564 511 514
f 564 509 511
f 564 514 515
f 563 559 566
f 562 566 559
f 556 510 563
f 564 563 510
f 566 556 563
f 510 509 564
f 516 517 560
f 567 568 569
f 567 569 570
f 571 572 568
f 571 568 567
f 569 460 461
f 569 458 460
f 569 464 462
f 569 466 464
f 569 462 458
f 573 570 461
f 569 461 570
f 570 573 574
f 568 484 465
f 530 484 568
f 466 569 568
f 568 465 466
f 568 572 542
f 572 543 542
f 572 547 544
f 572 548 547
f 572 544 543
f 571 567 574
f 570 574 567
f 565 549 571
f 572 571 549
f 574 565 571
f 549 548 572
f 542 530 568
f 575 576 577
f 575 577 578
f 579 580 576
f 579 576 575
f 577 412 414
f 577 416 412
f 577 423 417
f 577 424 423
f 577 417 416
f 558 578 414
f 577 414 578
f 578 558 581
f 576 449 425
f 448 449 576
f 424 577 576
f 576 425 424
f 576 580 450
f 580 451 450
f 580 457 452
f 580 459 457
f 580 452 451
f 579 575 581
f 578 581 575
f 573 461 579
f 580 579 461
f 581 573 579
f 461 459 580
f 450 448 576
f 581 558 557
f 581 574 573
f 566 581 557
f 581 566 574
f 566 565 574
f 556 566 557
f 582 583 584
f 582 584 585
f 585 584 586
f 585 586 587
f 588 589 590
f 591 592 590
f 591 590 589
f 593 594 592
f 593 592 591
f 595 596 594
f 595 594 593
f 597 587 596
f 597 596 595
f 585 587 597
f 598 582 585
f 597 598 585
f 599 582 598
f 600 601 599
f 598 600 599
f 601 600 602
f 603 604 605
f 606 588 605
f 606 605 604
f 607 589 588
f 607 588 606
f 608 591 589
f 608 589 607
f 609 593 591
f 609 591 608
f 610 595 593
f 610 593 609
f 611 597 595
f 611 595 610
f 612 598 597
f 612 597 611
f 613 600 598
f 613 598 612
f 614 602 600
f 614 600 613
f 615 616 602
f 615 602 614
f 617 618 616
f 617 616 615
f 619 603 620
f 619 620 621
f 622 604 603
f 622 603 619
f 623 606 604
f 623 604 622
f 624 607 606
f 624 606 623
f 625 608 607
f 625 607 624
f 626 609 608
f 626 608 625
f 627 610 609
f 627 609 626
f 628 611 610
f 628 610 627
f 629 612 611
f 629 611 628
f 630 613 612
f 630 612 629
f 631 614 613
f 631 613 630
f 632 615 614
f 632 614 631
f 633 617 615
f 633 615 632
f 634 635 617
f 634 617 633
f 636 637 635
f 636 635 634
f 621 620 638
f 621 638 639
f 640 619 621
f 640 621 641
f 642 622 619
f 642 619 640
f 643 623 622
f 643 622 642
f 644 624 623
f 644 623 643
f 645 625 624
f 645 624 644
f 646 626 625
f 646 625 645
f 647 627 626
f 647 626 646
f 648 628 627
f 648 627 647
f 649 629 628
f 649 628 648
f 650 630 629
f 650 629 649
f 651 631 630
f 651 630 650
f 652 632 631
f 652 631 651
f 653 633 632
f 653 632 652
f 654 634 633
f 654 633 653
f 655 636 634
f 655 634 654
f 656 657 636
f 656 636 655
f 658 639 659
f 658 659 660
f 641 621 639
f 641 639 658
f 661 640 641
f 661 641 662
f 663 642 640
f 663 640 661
f 664 643 642
f 664 642 663
f 665 644 643
f 665 643 664
f 666 645 644
f 666 644 665
f 667 646 645
f 667 645 666
f 668 647 646
f 668 646 667
f 669 648 647
f 669 647 668
f 670 649 648
f 670 648 669
f 671 650 649
f 671 649 670
f 672 651 650
f 672 650 671
f 673 652 651
f 673 651 672
f 674 653 652
f 674 652 673
f 675 654 653
f 675 653 674
f 676 655 654
f 676 654 675
f 677 656 655
f 677 655 676
f 678 679 656
f 678 656 677
f 680 681 679
f 680 679 678
f 682 683 684
f 685 660 684
f 685 684 683
f 686 658 660
f 686 660 685
f 662 641 658
f 662 658 686
f 687 661 662
f 687 662 688
f 689 663 661
f 689 661 687
f 690 664 663
f 690 663 689
f 691 665 664
f 691 664 690
f 692 666 665
f 692 665 691
f 693 667 666
f 693 666 692
f 694 668 667
f 694 667 693
f 695 669 668
f 695 668 694
f 696 670 669
f 696 669 695
f 697 671 670
f 697 670 696
f 698 672 671
f 698 671 697
f 699 673 672
f 699 672 698
f 700 674 673
f 700 673 699
f 701 675 674
f 701 674 700
f 702 676 675
f 702 675 701
f 703 677 676
f 703 676 702
f 704 678 677
f 704 677 703
f 705 680 678
f 705 678 704
f 706 707 680
f 706 680 705
f 708 682 709
f 708 709 710
f 711 683 682
f 711 682 708
f 712 685 683
f 712 683 711
f 713 686 685
f 713 685 712
f 688 662 686
f 688 686 713
f 714 687 688
f 714 688 715
f 716 689 687
f 716 687 714
f 717 690 689
f 717 689 716
f 718 691 690
f 718 690 717
f 719 692 691
f 719 691 718
f 720 693 692
f 720 692 719
f 721 694 693
f 721 693 720
f 722 695 694
f 722 694 721
f 723 696 695
f 723 695 722
f 724 697 696
f 724 696 723
f 725 698 697
f 725 697 724
f 726 699 698
f 726 698 725
f 727 700 699
f 727 699 726
f 728 701 700
f 728 700 727
f 729 702 701
f 729 701 728
f 730 703 702
f 730 702 729
f 731 704 703
f 731 703 730
f 732 705 704
f 732 704 731
f 733 706 705
f 733 705 732
f 734 735 706
f 734 706 733
f 736 710 737
f 736 737 738
f 739 708 710
f 739 710 736
f 740 711 708
f 740 708 739
f 741 712 711
f 741 711 740
f 742 713 712
f 742 712 741
f 715 688 713
f 715 713 742
f 743 714 715
f 743 715 744
f 745 716 714
f 745 714 743
f 746 717 716
f 746 716 745
f 747 718 717
f 747 717 746
f 748 719 718
f 748 718 747
f 749 720 719
f 749 719 748
f 750 721 720
f 750 720 749
f 751 722 721
f 751 721 750
f 752 723 722
f 752 722 751
f 753 724 723
f 753 723 752
f 754 725 724
f 754 724 753
f 755 726 725
f 755 725 754
f 756 727 726
f 756 726 755
f 757 728 727
f 757 727 756
f 758 729 728
f 758 728 757
f 759 730 729
f 759 729 758
f 760 731 730
f 760 730 759
f 761 732 731
f 761 731 760
f 762 733 732
f 762 732 761
f 763 734 733
f 763 733 762
f 764 765 734
f 764 734 763
f 766 767 765
f 766 765 764
f 768 769 767
f 768 767 766
f 770 771 769
f 770 769 768
f 772 773 771
f 772 771 770
f 774 738 773
f 774 773 772
f 775 736 738
f 775 738 774
f 776 739 736
f 776 736 775
f 777 740 739
f 777 739 776
f 778 741 740
f 778 740 777
f 779 742 741
f 779 741 778
f 744 715 742
f 744 742 779
f 780 743 744
f 780 744 781
f 782 745 743
f 782 743 780
f 783 746 745
f 783 745 782
f 784 747 746
f 784 746 783
f 785 748 747
f 785 747 784
f 786 749 748
f 786 748 785
f 787 750 749
f 787 749 786
f 788 751 750
f 788 750 787
f 789 752 751
f 789 751 788
f 790 753 752
f 790 752 789
f 791 754 753
f 791 753 790
f 792 755 754
f 792 754 791
f 793 756 755
f 793 755 792
f 794 757 756
f 794 756 793
f 795 758 757
f 795 757 794
f 796 759 758
f 796 758 795
f 797 760 759
f 797 759 796
f 798 761 760
f 798 760 797
f 799 762 761
f 799 761 798
f 800 763 762
f 800 762 799
f 801 764 763
f 801 763 800
f 802 766 764
f 802 764 801
f 803 768 766
f 803 766 802
f 804 770 768
f 804 768 803
f 805 772 770
f 805 770 804
f 806 774 772
f 806 772 805
f 807 775 774
f 807 774 806
f 808 776 775
f 808 775 807
f 809 777 776
f 809 776 808
f 810 778 777
f 810 777 809
f 811 779 778
f 811 778 810
f 781 744 779
f 781 779 811
f 812 780 781
f 812 781 813
f 814 782 780
f 814 780 812
f 815 783 782
f 815 782 814
f 816 784 783
f 816 783 815
f 817 785 784
f 817 784 816
f 818 786 785
f 818 785 817
f 819 787 786
f 819 786 818
f 820 788 787
f 820 787 819
f 821 789 788
f 821 788 820
f 822 790 789
f 822 789 821
f 823 791 790
f 823 790 822
f 824 792 791
f 824 791 823
f 825 793 792
f 825 792 824
f 826 794 793
f 826 793 825
f 827 795 794
f 827 794 826
f 828 796 795
f 828 795 827
f 829 797 796
f 829 796 828
f 830 798 797
f 830 797 829
f 831 799 798
f 831 798 830
f 832 800 799
f 832 799 831
f 833 801 800
f 833 800 832
f 834 802 801
f 834 801 833
f 835 803 802
f 835 802 834
f 836 804 803
f 836 803 835
f 837 805 804
f 837 804 836
f 838 806 805
f 838 805 837
f 839 807 806
f 839 806 838
f 840 808 807
f 840 807 839
f 841 809 808
f 841 808 840
f 842 810 809
f 842 809 841
f 843 811 810
f 843 810 842
f 813 781 811
f 813 811 843
f 844 812 813
f 844 813 845
f 846 814 812
f 846 812 844
f 847 815 814
f 847 814 846
f 848 816 815
f 848 815 847
f 849 817 816
f 849 816 848
f 850 818 817
f 850 817 849
f 851 819 818
f 851 818 850
f 852 820 819
f 852 819 851
f 853 821 820
f 853 820 852
f 854 822 821
f 854 821 853
f 855 823 822
f 855 822 854
f 856 824 823
f 856 823 855
f 857 825 824
f 857 824 856
f 858 826 825
f 858 825 857
f 859 827 826
f 859 826 858
f 860 828 827
f 860 827 859
f 861 829 828
f 861 828 860
f 862 830 829
f 862 829 861
f 863 831 830
f 863 830 862
f 864 832 831
f 864 831 863
f 865 833 832
f 865 832 864
f 866 834 833
f 866 833 865
f 867 835 834
f 867 834 866
f 868 836 835
f 868 835 867
f 869 837 836
f 869 836 868
f 870 838 837
f 870 837 869
f 871 839 838
f 871 838 870
f 872 840 839
f 872 839 871
f 873 841 840
f 873 840 872
f 874 842 841
f 874 841 873
f 875 843 842
f 875 842 874
f 845 813 843
f 845 843 875
f 876 844 845
f 876 845 877
f 878 846 844
f 878 844 876
f 879 847 846
f 879 846 878
f 880 848 847
f 880 847 879
f 881 849 848
f 881 848 880
f 882 850 849
f 882 849 881
f 883 851 850
f 883 850 882
f 884 852 851
f 884 851 883
f 885 853 852
f 885 852 884
f 886 854 853
f 886 853 885
f 887 855 854
f 887 854 886
f 888 856 855
f 888 855 887
f 889 857 856
f 889 856 888
f 890 858 857
f 890 857 889
f 891 859 858
f 891 858 890
f 892 860 859
f 892 859 891
f 893 861 860
f 893 860 892
f 894 862 861
f 894 861 893
f 895 863 862
f 895 862 894
f 896 864 863
f 896 863 895
f 897 865 864
f 897 864 896
f 898 866 865
f 898 865 897
f 899 867 866
f 899 866 898
f 900 868 867
f 900 867 899
f 901 869 868
f 901 868 900
f 902 870 869
f 902 869 901
f 903 871 870
f 903 870 902
f 904 872 871
f 904 871 903
f 905 873 872
f 905 872 904
f 906 874 873
f 906 873 905
f 907 875 874
f 907 874 906
f 877 845 875
f 877 875 907
f 908 876 877
f 908 877 909
f 910 878 876
f 910 876 908
f 911 879 878
f 911 878 910
f 912 880 879
f 912 879 911
f 913 881 880
f 913 880 912
f 914 882 881
f 914 881 913
f 915 883 882
f 915 882 914
f 916 884 883
f 916 883 915
f 917 885 884
f 917 884 916
f 918 886 885
f 918 885 917
f 919 887 886
f 919 886 918
f 920 888 887
f 920 887 919
f 921 889 888
f 921 888 920
f 922 890 889
f 922 889 921
f 923 891 890
f 923 890 922
f 924 892 891
f 924 891 923
f 925 893 892
f 925 892 924
f 926 894 893
f 926 893 925
f 927 895 894
f 927 894 926
f 928 896 895
f 928 895 927
f 929 897 896
f 929 896 928
f 930 898 897
f 930 897 929
f 931 899 898
f 931 898 930
f 932 900 899
f 932 899 931
f 933 901 900
f 933 900 932
f 934 902 901
f 934 901 933
f 935 903 902
f 935 902 934
f 936 904 903
f 936 903 935
f 937 905 904
f 937 904 936
f 938 906 905
f 938 905 937
f 939 907 906
f 939 906 938
f 909 877 907
f 909 907 939
f 940 908 909
f 940 909 941
f 942 910 908
f 942 908 940
f 943 911 910
f 943 910 942
f 944 912 911
f 944 911 943
f 945 913 912
f 945 912 944
f 946 914 913
f 946 913 945
f 947 915 914
f 947 914 946
f 948 916 915
f 948 915 947
f 949 917 916
f 949 916 948
f 950 918 917
f 950 917 949
f 951 919 918
f 951 918 950
f 952 920 919
f 952 919 951
f 953 921 920
f 953 920 952
f 954 922 921
f 954 921 953
f 955 923 922
f 955 922 954
f 956 924 923
f 956 923 955
f 957 925 924
f 957 924 956
f 958 926 925
f 958 925 957
f 959 927 926
f 959 926 958
f 960 928 927
f 960 927 959
f 961 935 934
f 961 934 962
f 963 936 935
f 963 935 961
f 964 937 936
f 964 936 963
f 965 938 937
f 965 937 964
f 966 939 938
f 966 938 965
f 941 909 939
f 941 939 966
f 967 940 941
f 967 941 968
f 969 942 940
f 969 940 967
f 970 943 942
f 970 942 969
f 971 944 943
f 971 943 970
f 972 945 944
f 972 944 971
f 973 946 945
f 973 945 972
f 974 947 946
f 974 946 973
f 975 948 947
f 975 947 974
f 976 949 948
f 976 948 975
f 977 950 949
f 977 949 976
f 978 951 950
f 978 950 977
f 979 952 951
f 979 951 978
f 980 953 952
f 980 952 979
f 981 954 953
f 981 953 980
f 982 955 954
f 982 954 981
f 983 956 955
f 983 955 982
f 984 957 956
f 984 956 983
f 985 958 957
f 985 957 984
f 986 959 958
f 986 958 985
f 987 963 961
f 987 961 988
f 989 964 963
f 989 963 987
f 990 965 964
f 990 964 989
f 991 966 965
f 991 965 990
f 968 941 966
f 968 966 991
f 992 967 968
f 992 968 993
f 994 969 967
f 994 967 992
f 995 970 969
f 995 969 994
f 996 971 970
f 996 970 995
f 997 972 971
f 997 971 996
f 998 973 972
f 998 972 997
f 999 974 973
f 999 973 998
f 1000 975 974
f 1000 974 999
f 1001 976 975
f 1001 975 1000
f 1002 977 976
f 1002 976 1001
f 1003 978 977
f 1003 977 1002
f 1004 979 978
f 1004 978 1003
f 1005 980 979
f 1005 979 1004
f 1006 981 980
f 1006 980 1005
f 1007 982 981
f 1007 981 1006
f 1008 983 982
f 1008 982 1007
f 1009 984 983
f 1009 983 1008
f 1010 985 984
f 1010 984 1009
f 1011 989 987
f 1012 990 989
f 1012 989 1011
f 1013 991 990
f 1013 990 1012
f 993 968 991
f 993 991 1013
f 1014 992 993
f 1014 993 1015
f 1016 994 992
f 1016 992 1014
f 1017 995 994
f 1017 994 1016
f 1018 996 995
f 1018 995 1017
f 1019 997 996
f 1019 996 1018
f 1020 998 997
f 1020 997 1019
f 1021 999 998
f 1021 998 1020
f 1022 1000 999
f 1022 999 1021
f 1023 1001 1000
f 1023 1000 1022
f 1024 1002 1001
f 1024 1001 1023
f 1025 1003 1002
f 1025 1002 1024
f 1026 1004 1003
f 1026 1003 1025
f 1027 1005 1004
f 1027 1004 1026
f 1028 1006 1005
f 1028 1005 1027
f 1029 1007 1006
f 1029 1006 1028
f 1030 1008 1007
f 1030 1007 1029
f 1031 1013 1012
f 1031 1012 1032
f 1015 993 1013
f 1015 1013 1031
f 1033 1014 1015
f 1033 1015 1034
f 1035 1016 1014
f 1035 1014 1033
f 1036 1017 1016
f 1036 1016 1035
f 1037 1018 1017
f 1037 1017 1036
f 1038 1019 1018
f 1038 1018 1037
f 1039 1020 1019
f 1039 1019 1038
f 1040 1021 1020
f 1040 1020 1039
f 1041 1022 1021
f 1041 1021 1040
f 1042 1023 1022
f 1042 1022 1041
f 1043 1024 1023
f 1043 1023 1042
f 1044 1025 1024
f 1044 1024 1043
f 1045 1026 1025
f 1045 1025 1044
f 1046 1027 1026
f 1046 1026 1045
f 1047 1028 1027
f 1047 1027 1046
f 1048 1029 1028
f 1048 1028 1047
f 1034 1015 1031
f 1034 1031 1049
f 1050 1035 1033
f 1050 1033 1051
f 1052 1036 1035
f 1052 1035 1050
f 1053 1037 1036
f 1053 1036 1052
f 1054 1038 1037
f 1054 1037 1053
f 1055 1039 1038
f 1055 1038 1054
f 1056 1040 1039
f 1056 1039 1055
f 1057 1041 1040
f 1057 1040 1056
f 1058 1042 1041
f 1058 1041 1057
f 1059 1043 1042
f 1059 1042 1058
f 1060 1044 1043
f 1060 1043 1059
f 1061 1045 1044
f 1061 1044 1060
f 1062 1046 1045
f 1062 1045 1061
f 1063 1054 1053
f 1063 1053 1064
f 1065 1055 1054
f 1065 1054 1063
f 1066 1056 1055
f 1066 1055 1065
f 1067 1068 1057
f 1056 1066 1067
f 1057 1056 1067
f 1069 1070 1058
f 1057 1068 1069
f 1058 1057 1069
f 1071 1072 1059
f 1058 1070 1071
f 1059 1058 1071
f 1073 1068 1067
f 1073 1067 1074
f 1074 1067 1066
f 1074 1066 1075
f 1076 1070 1069
f 1076 1069 1077
f 1077 1069 1068
f 1077 1068 1073
f 438 594 439
f 486 439 586
f 439 596 586
f 584 486 586
f 592 438 437
f 590 433 434
f 588 590 434
f 437 590 592
f 592 594 438
f 594 596 439
f 437 433 590
f 587 586 596
f 583 487 584
f 584 487 486
f 599 489 488
f 487 583 488
f 488 583 599
f 582 599 583
f 599 601 489
f 602 490 491
f 601 491 489
f 491 601 602
f 605 421 432
f 490 602 616
f 605 588 421
f 605 432 603
f 588 434 421
f 603 427 620
f 490 616 492
f 492 616 618
f 427 603 432
f 493 492 618
f 635 493 617
f 618 617 493
f 512 493 635
f 513 512 637
f 635 637 512
f 637 636 513
f 657 503 636
f 513 636 503
f 502 503 657
f 679 502 656
f 657 656 502
f 499 502 679
f 500 499 681
f 681 499 679
f 682 435 442
f 500 681 680
f 501 500 707
f 680 707 500
f 442 709 682
f 443 444 709
f 443 709 442
f 707 495 501
f 684 435 682
f 428 639 638
f 426 428 638
f 620 427 426
f 638 620 426
f 430 659 428
f 684 431 429
f 435 684 429
f 660 431 684
f 431 660 659
f 659 639 428
f 431 659 430
f 735 495 706
f 707 706 495
f 765 498 496
f 495 735 496
f 496 735 734
f 765 767 498
f 767 440 497
f 767 497 498
f 929 928 520
f 734 765 496
f 445 773 446
f 773 737 446
f 710 444 737
f 446 737 444
f 709 444 710
f 447 773 445
f 769 441 440
f 767 769 440
f 771 441 769
f 771 773 447
f 773 738 737
f 771 447 441
f 1033 1034 468
f 468 1051 1033
f 463 1050 1051
f 1051 468 478
f 1052 1050 463
f 478 463 1051
f 1064 1053 1052
f 1061 1060 532
f 1059 1072 1060
f 535 1047 1046
f 1029 1048 531
f 531 526 1029
f 1062 1061 533
f 1061 532 533
f 535 1062 533
f 535 1046 1062
f 1047 536 1048
f 536 1047 535
f 531 1048 536
f 1052 463 467
f 480 1063 1064
f 1052 467 1064
f 1063 481 1065
f 1065 1075 1066
f 1064 467 479
f 1063 480 481
f 1065 481 482
f 1074 1075 482
f 482 1075 1065
f 483 1074 482
f 480 1064 479
f 528 527 1071
f 527 1072 1071
f 1072 534 1060
f 1060 534 532
f 527 534 1072
f 1076 1071 1070
f 1077 1073 483
f 1074 483 1073
f 529 1077 483
f 528 1076 529
f 1077 529 1076
f 1071 1076 528
f 518 930 519
f 519 930 929
f 931 930 485
f 518 485 930
f 475 931 485
f 523 986 985
f 521 959 986
f 520 960 521
f 959 521 960
f 929 520 519
f 520 928 960
f 476 932 475
f 931 475 932
f 933 932 476
f 962 934 933
f 476 473 933
f 473 469 933
f 470 962 469
f 933 469 962
f 961 962 470
f 961 472 988
f 471 987 988
f 470 472 961
f 986 522 521
f 986 523 522
f 471 456 987
f 523 985 1010
f 526 525 1030
f 1009 525 524
f 1029 526 1030
f 524 1010 1009
f 1010 524 523
f 1009 1008 525
f 987 456 1011
f 477 1011 474
f 456 474 1011
f 1012 1011 477
f 477 1032 1012
f 1032 455 1031
f 453 1032 477
f 1031 455 1049
f 454 1049 455
f 468 1034 454
f 1049 454 1034
f 455 1032 453
f 471 988 472
f 1008 1030 525
